<svg width="251" height="166" viewBox="0 0 251 166" fill="none" xmlns="http://www.w3.org/2000/svg">
<path fill-rule="evenodd" clip-rule="evenodd" d="M2.5 163.5H248.662H2.5Z" fill="white"/>
<path d="M2.5 163.5H248.662" stroke="#6EBDFE" stroke-width="4" stroke-linecap="round" stroke-linejoin="round"/>
<path d="M179 163V2H76L76 163" stroke="#6EBDFE" stroke-width="4" stroke-linecap="round" stroke-linejoin="round"/>
<rect x="89" y="14" width="76" height="31" stroke="#6EBDFE" stroke-width="4" stroke-linecap="round" stroke-linejoin="round"/>
<rect x="89" y="64" width="76" height="31" stroke="#6EBDFE" stroke-width="4" stroke-linecap="round" stroke-linejoin="round"/>
<rect x="89" y="114" width="76" height="31" stroke="#6EBDFE" stroke-width="4" stroke-linecap="round" stroke-linejoin="round"/>
<rect x="150.5" y="77.5" width="22" height="3" rx="1.5" fill="white" stroke="#6EBDFE" stroke-width="3" stroke-linecap="round" stroke-linejoin="round"/>
</svg>
